digraph Tree {
node [shape=box, style="filled, rounded", color="black", fontname=helvetica] ;
edge [fontname=helvetica] ;
0 [label="Sex <= 0.5\nentropy = 0.974\nsamples = 712\nvalue = [424, 288]", fillcolor="#f7d7bf"] ;
1 [label="Pclass <= 2.5\nentropy = 0.807\nsamples = 259\nvalue = [64, 195]", fillcolor="#7abdee"] ;
0 -> 1 [labeldistance=2.5, labelangle=45, headlabel="True"] ;
2 [label="Fare <= 28.856\nentropy = 0.317\nsamples = 157\nvalue = [9, 148]", fillcolor="#45a3e7"] ;
1 -> 2 ;
3 [label="Fare <= 28.231\nentropy = 0.474\nsamples = 69\nvalue = [7, 62]", fillcolor="#4fa8e8"] ;
2 -> 3 ;
4 [label="Age <= 23.5\nentropy = 0.431\nsamples = 68\nvalue = [6, 62]", fillcolor="#4ca6e8"] ;
3 -> 4 ;
5 [label="entropy = 0.0\nsamples = 15\nvalue = [0, 15]", fillcolor="#399de5"] ;
4 -> 5 ;
6 [label="Age <= 27.5\nentropy = 0.51\nsamples = 53\nvalue = [6, 47]", fillcolor="#52aae8"] ;
4 -> 6 ;
7 [label="Age <= 25.5\nentropy = 0.845\nsamples = 11\nvalue = [3, 8]", fillcolor="#83c2ef"] ;
6 -> 7 ;
8 [label="Fare <= 13.75\nentropy = 0.592\nsamples = 7\nvalue = [1, 6]", fillcolor="#5aade9"] ;
7 -> 8 ;
9 [label="entropy = 1.0\nsamples = 2\nvalue = [1, 1]", fillcolor="#ffffff"] ;
8 -> 9 ;
10 [label="entropy = 0.0\nsamples = 5\nvalue = [0, 5]", fillcolor="#399de5"] ;
8 -> 10 ;
11 [label="Fare <= 17.429\nentropy = 1.0\nsamples = 4\nvalue = [2, 2]", fillcolor="#ffffff"] ;
7 -> 11 ;
12 [label="entropy = 0.0\nsamples = 2\nvalue = [0, 2]", fillcolor="#399de5"] ;
11 -> 12 ;
13 [label="entropy = 0.0\nsamples = 2\nvalue = [2, 0]", fillcolor="#e58139"] ;
11 -> 13 ;
14 [label="Age <= 37.0\nentropy = 0.371\nsamples = 42\nvalue = [3, 39]", fillcolor="#48a5e7"] ;
6 -> 14 ;
15 [label="entropy = 0.0\nsamples = 23\nvalue = [0, 23]", fillcolor="#399de5"] ;
14 -> 15 ;
16 [label="Age <= 39.0\nentropy = 0.629\nsamples = 19\nvalue = [3, 16]", fillcolor="#5eafea"] ;
14 -> 16 ;
17 [label="entropy = 0.0\nsamples = 1\nvalue = [1, 0]", fillcolor="#e58139"] ;
16 -> 17 ;
18 [label="Age <= 56.0\nentropy = 0.503\nsamples = 18\nvalue = [2, 16]", fillcolor="#52a9e8"] ;
16 -> 18 ;
19 [label="SibSp <= 0.5\nentropy = 0.337\nsamples = 16\nvalue = [1, 15]", fillcolor="#46a4e7"] ;
18 -> 19 ;
20 [label="entropy = 0.0\nsamples = 12\nvalue = [0, 12]", fillcolor="#399de5"] ;
19 -> 20 ;
21 [label="Parch <= 0.5\nentropy = 0.811\nsamples = 4\nvalue = [1, 3]", fillcolor="#7bbeee"] ;
19 -> 21 ;
22 [label="Age <= 43.0\nentropy = 1.0\nsamples = 2\nvalue = [1, 1]", fillcolor="#ffffff"] ;
21 -> 22 ;
23 [label="entropy = 0.0\nsamples = 1\nvalue = [0, 1]", fillcolor="#399de5"] ;
22 -> 23 ;
24 [label="entropy = 0.0\nsamples = 1\nvalue = [1, 0]", fillcolor="#e58139"] ;
22 -> 24 ;
25 [label="entropy = 0.0\nsamples = 2\nvalue = [0, 2]", fillcolor="#399de5"] ;
21 -> 25 ;
26 [label="Age <= 57.5\nentropy = 1.0\nsamples = 2\nvalue = [1, 1]", fillcolor="#ffffff"] ;
18 -> 26 ;
27 [label="entropy = 0.0\nsamples = 1\nvalue = [1, 0]", fillcolor="#e58139"] ;
26 -> 27 ;
28 [label="entropy = 0.0\nsamples = 1\nvalue = [0, 1]", fillcolor="#399de5"] ;
26 -> 28 ;
29 [label="entropy = 0.0\nsamples = 1\nvalue = [1, 0]", fillcolor="#e58139"] ;
3 -> 29 ;
30 [label="Age <= 2.5\nentropy = 0.156\nsamples = 88\nvalue = [2, 86]", fillcolor="#3e9fe6"] ;
2 -> 30 ;
31 [label="entropy = 0.0\nsamples = 1\nvalue = [1, 0]", fillcolor="#e58139"] ;
30 -> 31 ;
32 [label="Parch <= 1.5\nentropy = 0.091\nsamples = 87\nvalue = [1, 86]", fillcolor="#3b9ee5"] ;
30 -> 32 ;
33 [label="entropy = 0.0\nsamples = 72\nvalue = [0, 72]", fillcolor="#399de5"] ;
32 -> 33 ;
34 [label="Age <= 24.5\nentropy = 0.353\nsamples = 15\nvalue = [1, 14]", fillcolor="#47a4e7"] ;
32 -> 34 ;
35 [label="entropy = 0.0\nsamples = 10\nvalue = [0, 10]", fillcolor="#399de5"] ;
34 -> 35 ;
36 [label="Age <= 28.0\nentropy = 0.722\nsamples = 5\nvalue = [1, 4]", fillcolor="#6ab6ec"] ;
34 -> 36 ;
37 [label="entropy = 0.0\nsamples = 1\nvalue = [1, 0]", fillcolor="#e58139"] ;
36 -> 37 ;
38 [label="entropy = 0.0\nsamples = 4\nvalue = [0, 4]", fillcolor="#399de5"] ;
36 -> 38 ;
39 [label="Fare <= 20.8\nentropy = 0.996\nsamples = 102\nvalue = [55, 47]", fillcolor="#fbede2"] ;
1 -> 39 ;
40 [label="Age <= 16.5\nentropy = 0.991\nsamples = 79\nvalue = [35, 44]", fillcolor="#d7ebfa"] ;
39 -> 40 ;
41 [label="Fare <= 15.494\nentropy = 0.722\nsamples = 20\nvalue = [4, 16]", fillcolor="#6ab6ec"] ;
40 -> 41 ;
42 [label="Age <= 14.75\nentropy = 0.837\nsamples = 15\nvalue = [4, 11]", fillcolor="#81c1ee"] ;
41 -> 42 ;
43 [label="Fare <= 13.935\nentropy = 0.971\nsamples = 10\nvalue = [4, 6]", fillcolor="#bddef6"] ;
42 -> 43 ;
44 [label="Fare <= 10.798\nentropy = 0.811\nsamples = 8\nvalue = [2, 6]", fillcolor="#7bbeee"] ;
43 -> 44 ;
45 [label="Embarked <= 1.0\nentropy = 0.918\nsamples = 3\nvalue = [2, 1]", fillcolor="#f2c09c"] ;
44 -> 45 ;
46 [label="entropy = 0.0\nsamples = 1\nvalue = [0, 1]", fillcolor="#399de5"] ;
45 -> 46 ;
47 [label="entropy = 0.0\nsamples = 2\nvalue = [2, 0]", fillcolor="#e58139"] ;
45 -> 47 ;
48 [label="entropy = 0.0\nsamples = 5\nvalue = [0, 5]", fillcolor="#399de5"] ;
44 -> 48 ;
49 [label="entropy = 0.0\nsamples = 2\nvalue = [2, 0]", fillcolor="#e58139"] ;
43 -> 49 ;
50 [label="entropy = 0.0\nsamples = 5\nvalue = [0, 5]", fillcolor="#399de5"] ;
42 -> 50 ;
51 [label="entropy = 0.0\nsamples = 5\nvalue = [0, 5]", fillcolor="#399de5"] ;
41 -> 51 ;
52 [label="Age <= 36.5\nentropy = 0.998\nsamples = 59\nvalue = [31, 28]", fillcolor="#fcf3ec"] ;
40 -> 52 ;
53 [label="Parch <= 1.5\nentropy = 0.999\nsamples = 52\nvalue = [25, 27]", fillcolor="#f0f8fd"] ;
52 -> 53 ;
54 [label="Age <= 32.5\nentropy = 0.997\nsamples = 47\nvalue = [25, 22]", fillcolor="#fcf0e7"] ;
53 -> 54 ;
55 [label="Fare <= 7.888\nentropy = 0.987\nsamples = 44\nvalue = [25, 19]", fillcolor="#f9e1cf"] ;
54 -> 55 ;
56 [label="Age <= 28.25\nentropy = 0.954\nsamples = 16\nvalue = [6, 10]", fillcolor="#b0d8f5"] ;
55 -> 56 ;
57 [label="Fare <= 7.0\nentropy = 0.863\nsamples = 14\nvalue = [4, 10]", fillcolor="#88c4ef"] ;
56 -> 57 ;
58 [label="entropy = 0.0\nsamples = 1\nvalue = [1, 0]", fillcolor="#e58139"] ;
57 -> 58 ;
59 [label="Fare <= 7.7\nentropy = 0.779\nsamples = 13\nvalue = [3, 10]", fillcolor="#74baed"] ;
57 -> 59 ;
60 [label="entropy = 0.0\nsamples = 4\nvalue = [0, 4]", fillcolor="#399de5"] ;
59 -> 60 ;
61 [label="Fare <= 7.815\nentropy = 0.918\nsamples = 9\nvalue = [3, 6]", fillcolor="#9ccef2"] ;
59 -> 61 ;
62 [label="Age <= 21.5\nentropy = 1.0\nsamples = 6\nvalue = [3, 3]", fillcolor="#ffffff"] ;
61 -> 62 ;
63 [label="entropy = 0.0\nsamples = 2\nvalue = [2, 0]", fillcolor="#e58139"] ;
62 -> 63 ;
64 [label="Age <= 23.5\nentropy = 0.811\nsamples = 4\nvalue = [1, 3]", fillcolor="#7bbeee"] ;
62 -> 64 ;
65 [label="entropy = 0.0\nsamples = 3\nvalue = [0, 3]", fillcolor="#399de5"] ;
64 -> 65 ;
66 [label="entropy = 0.0\nsamples = 1\nvalue = [1, 0]", fillcolor="#e58139"] ;
64 -> 66 ;
67 [label="entropy = 0.0\nsamples = 3\nvalue = [0, 3]", fillcolor="#399de5"] ;
61 -> 67 ;
68 [label="entropy = 0.0\nsamples = 2\nvalue = [2, 0]", fillcolor="#e58139"] ;
56 -> 68 ;
69 [label="Embarked <= 1.5\nentropy = 0.906\nsamples = 28\nvalue = [19, 9]", fillcolor="#f1bd97"] ;
55 -> 69 ;
70 [label="entropy = 0.0\nsamples = 3\nvalue = [3, 0]", fillcolor="#e58139"] ;
69 -> 70 ;
71 [label="SibSp <= 0.5\nentropy = 0.943\nsamples = 25\nvalue = [16, 9]", fillcolor="#f4c8a8"] ;
69 -> 71 ;
72 [label="Age <= 19.0\nentropy = 1.0\nsamples = 14\nvalue = [7, 7]", fillcolor="#ffffff"] ;
71 -> 72 ;
73 [label="entropy = 0.0\nsamples = 2\nvalue = [0, 2]", fillcolor="#399de5"] ;
72 -> 73 ;
74 [label="Age <= 25.0\nentropy = 0.98\nsamples = 12\nvalue = [7, 5]", fillcolor="#f8dbc6"] ;
72 -> 74 ;
75 [label="entropy = 0.0\nsamples = 5\nvalue = [5, 0]", fillcolor="#e58139"] ;
74 -> 75 ;
76 [label="Fare <= 7.91\nentropy = 0.863\nsamples = 7\nvalue = [2, 5]", fillcolor="#88c4ef"] ;
74 -> 76 ;
77 [label="entropy = 0.0\nsamples = 1\nvalue = [1, 0]", fillcolor="#e58139"] ;
76 -> 77 ;
78 [label="Age <= 28.5\nentropy = 0.65\nsamples = 6\nvalue = [1, 5]", fillcolor="#61b1ea"] ;
76 -> 78 ;
79 [label="entropy = 0.0\nsamples = 3\nvalue = [0, 3]", fillcolor="#399de5"] ;
78 -> 79 ;
80 [label="Fare <= 8.673\nentropy = 0.918\nsamples = 3\nvalue = [1, 2]", fillcolor="#9ccef2"] ;
78 -> 80 ;
81 [label="entropy = 0.0\nsamples = 1\nvalue = [1, 0]", fillcolor="#e58139"] ;
80 -> 81 ;
82 [label="entropy = 0.0\nsamples = 2\nvalue = [0, 2]", fillcolor="#399de5"] ;
80 -> 82 ;
83 [label="Fare <= 19.262\nentropy = 0.684\nsamples = 11\nvalue = [9, 2]", fillcolor="#eb9d65"] ;
71 -> 83 ;
84 [label="Fare <= 15.125\nentropy = 0.469\nsamples = 10\nvalue = [9, 1]", fillcolor="#e88f4f"] ;
83 -> 84 ;
85 [label="entropy = 0.0\nsamples = 5\nvalue = [5, 0]", fillcolor="#e58139"] ;
84 -> 85 ;
86 [label="Fare <= 15.975\nentropy = 0.722\nsamples = 5\nvalue = [4, 1]", fillcolor="#eca06a"] ;
84 -> 86 ;
87 [label="entropy = 0.0\nsamples = 1\nvalue = [0, 1]", fillcolor="#399de5"] ;
86 -> 87 ;
88 [label="entropy = 0.0\nsamples = 4\nvalue = [4, 0]", fillcolor="#e58139"] ;
86 -> 88 ;
89 [label="entropy = 0.0\nsamples = 1\nvalue = [0, 1]", fillcolor="#399de5"] ;
83 -> 89 ;
90 [label="entropy = 0.0\nsamples = 3\nvalue = [0, 3]", fillcolor="#399de5"] ;
54 -> 90 ;
91 [label="entropy = 0.0\nsamples = 5\nvalue = [0, 5]", fillcolor="#399de5"] ;
53 -> 91 ;
92 [label="Age <= 55.0\nentropy = 0.592\nsamples = 7\nvalue = [6, 1]", fillcolor="#e9965a"] ;
52 -> 92 ;
93 [label="entropy = 0.0\nsamples = 6\nvalue = [6, 0]", fillcolor="#e58139"] ;
92 -> 93 ;
94 [label="entropy = 0.0\nsamples = 1\nvalue = [0, 1]", fillcolor="#399de5"] ;
92 -> 94 ;
95 [label="Age <= 5.5\nentropy = 0.559\nsamples = 23\nvalue = [20, 3]", fillcolor="#e99457"] ;
39 -> 95 ;
96 [label="Age <= 3.5\nentropy = 0.971\nsamples = 5\nvalue = [3, 2]", fillcolor="#f6d5bd"] ;
95 -> 96 ;
97 [label="entropy = 0.0\nsamples = 3\nvalue = [3, 0]", fillcolor="#e58139"] ;
96 -> 97 ;
98 [label="entropy = 0.0\nsamples = 2\nvalue = [0, 2]", fillcolor="#399de5"] ;
96 -> 98 ;
99 [label="Parch <= 4.5\nentropy = 0.31\nsamples = 18\nvalue = [17, 1]", fillcolor="#e78845"] ;
95 -> 99 ;
100 [label="entropy = 0.0\nsamples = 13\nvalue = [13, 0]", fillcolor="#e58139"] ;
99 -> 100 ;
101 [label="Age <= 38.5\nentropy = 0.722\nsamples = 5\nvalue = [4, 1]", fillcolor="#eca06a"] ;
99 -> 101 ;
102 [label="entropy = 0.0\nsamples = 1\nvalue = [0, 1]", fillcolor="#399de5"] ;
101 -> 102 ;
103 [label="entropy = 0.0\nsamples = 4\nvalue = [4, 0]", fillcolor="#e58139"] ;
101 -> 103 ;
104 [label="Pclass <= 1.5\nentropy = 0.732\nsamples = 453\nvalue = [360, 93]", fillcolor="#eca26c"] ;
0 -> 104 [labeldistance=2.5, labelangle=-45, headlabel="False"] ;
105 [label="Age <= 53.0\nentropy = 0.969\nsamples = 101\nvalue = [61, 40]", fillcolor="#f6d4bb"] ;
104 -> 105 ;
106 [label="Fare <= 25.938\nentropy = 0.997\nsamples = 79\nvalue = [42, 37]", fillcolor="#fcf0e7"] ;
105 -> 106 ;
107 [label="entropy = 0.0\nsamples = 5\nvalue = [5, 0]", fillcolor="#e58139"] ;
106 -> 107 ;
108 [label="Fare <= 27.135\nentropy = 1.0\nsamples = 74\nvalue = [37, 37]", fillcolor="#ffffff"] ;
106 -> 108 ;
109 [label="Age <= 43.5\nentropy = 0.439\nsamples = 11\nvalue = [1, 10]", fillcolor="#4da7e8"] ;
108 -> 109 ;
110 [label="entropy = 0.0\nsamples = 7\nvalue = [0, 7]", fillcolor="#399de5"] ;
109 -> 110 ;
111 [label="Age <= 46.5\nentropy = 0.811\nsamples = 4\nvalue = [1, 3]", fillcolor="#7bbeee"] ;
109 -> 111 ;
112 [label="entropy = 1.0\nsamples = 2\nvalue = [1, 1]", fillcolor="#ffffff"] ;
111 -> 112 ;
113 [label="entropy = 0.0\nsamples = 2\nvalue = [0, 2]", fillcolor="#399de5"] ;
111 -> 113 ;
114 [label="Age <= 17.5\nentropy = 0.985\nsamples = 63\nvalue = [36, 27]", fillcolor="#f8e0ce"] ;
108 -> 114 ;
115 [label="entropy = 0.0\nsamples = 4\nvalue = [0, 4]", fillcolor="#399de5"] ;
114 -> 115 ;
116 [label="Age <= 22.5\nentropy = 0.965\nsamples = 59\nvalue = [36, 23]", fillcolor="#f6d2b8"] ;
114 -> 116 ;
117 [label="entropy = 0.0\nsamples = 5\nvalue = [5, 0]", fillcolor="#e58139"] ;
116 -> 117 ;
118 [label="Fare <= 29.85\nentropy = 0.984\nsamples = 54\nvalue = [31, 23]", fillcolor="#f8decc"] ;
116 -> 118 ;
119 [label="entropy = 0.0\nsamples = 4\nvalue = [4, 0]", fillcolor="#e58139"] ;
118 -> 119 ;
120 [label="Fare <= 32.51\nentropy = 0.995\nsamples = 50\nvalue = [27, 23]", fillcolor="#fbece2"] ;
118 -> 120 ;
121 [label="Fare <= 30.25\nentropy = 0.65\nsamples = 6\nvalue = [1, 5]", fillcolor="#61b1ea"] ;
120 -> 121 ;
122 [label="Embarked <= 1.0\nentropy = 1.0\nsamples = 2\nvalue = [1, 1]", fillcolor="#ffffff"] ;
121 -> 122 ;
123 [label="entropy = 0.0\nsamples = 1\nvalue = [0, 1]", fillcolor="#399de5"] ;
122 -> 123 ;
124 [label="entropy = 0.0\nsamples = 1\nvalue = [1, 0]", fillcolor="#e58139"] ;
122 -> 124 ;
125 [label="entropy = 0.0\nsamples = 4\nvalue = [0, 4]", fillcolor="#399de5"] ;
121 -> 125 ;
126 [label="Fare <= 379.925\nentropy = 0.976\nsamples = 44\nvalue = [26, 18]", fillcolor="#f7d8c2"] ;
120 -> 126 ;
127 [label="SibSp <= 0.5\nentropy = 0.959\nsamples = 42\nvalue = [26, 16]", fillcolor="#f5cfb3"] ;
126 -> 127 ;
128 [label="Age <= 29.5\nentropy = 0.696\nsamples = 16\nvalue = [13, 3]", fillcolor="#eb9e67"] ;
127 -> 128 ;
129 [label="Fare <= 77.965\nentropy = 0.985\nsamples = 7\nvalue = [4, 3]", fillcolor="#f8e0ce"] ;
128 -> 129 ;
130 [label="Age <= 27.5\nentropy = 0.811\nsamples = 4\nvalue = [1, 3]", fillcolor="#7bbeee"] ;
129 -> 130 ;
131 [label="entropy = 0.0\nsamples = 2\nvalue = [0, 2]", fillcolor="#399de5"] ;
130 -> 131 ;
132 [label="Fare <= 41.3\nentropy = 1.0\nsamples = 2\nvalue = [1, 1]", fillcolor="#ffffff"] ;
130 -> 132 ;
133 [label="entropy = 0.0\nsamples = 1\nvalue = [0, 1]", fillcolor="#399de5"] ;
132 -> 133 ;
134 [label="entropy = 0.0\nsamples = 1\nvalue = [1, 0]", fillcolor="#e58139"] ;
132 -> 134 ;
135 [label="entropy = 0.0\nsamples = 3\nvalue = [3, 0]", fillcolor="#e58139"] ;
129 -> 135 ;
136 [label="entropy = 0.0\nsamples = 9\nvalue = [9, 0]", fillcolor="#e58139"] ;
128 -> 136 ;
137 [label="Age <= 27.5\nentropy = 1.0\nsamples = 26\nvalue = [13, 13]", fillcolor="#ffffff"] ;
127 -> 137 ;
138 [label="entropy = 0.0\nsamples = 3\nvalue = [0, 3]", fillcolor="#399de5"] ;
137 -> 138 ;
139 [label="Fare <= 115.442\nentropy = 0.988\nsamples = 23\nvalue = [13, 10]", fillcolor="#f9e2d1"] ;
137 -> 139 ;
140 [label="Age <= 49.5\nentropy = 0.959\nsamples = 21\nvalue = [13, 8]", fillcolor="#f5cfb3"] ;
139 -> 140 ;
141 [label="Age <= 47.0\nentropy = 0.991\nsamples = 18\nvalue = [10, 8]", fillcolor="#fae6d7"] ;
140 -> 141 ;
142 [label="Age <= 43.0\nentropy = 0.89\nsamples = 13\nvalue = [9, 4]", fillcolor="#f1b991"] ;
141 -> 142 ;
143 [label="Age <= 30.0\nentropy = 0.971\nsamples = 10\nvalue = [6, 4]", fillcolor="#f6d5bd"] ;
142 -> 143 ;
144 [label="entropy = 0.0\nsamples = 2\nvalue = [2, 0]", fillcolor="#e58139"] ;
143 -> 144 ;
145 [label="Fare <= 52.277\nentropy = 1.0\nsamples = 8\nvalue = [4, 4]", fillcolor="#ffffff"] ;
143 -> 145 ;
146 [label="entropy = 0.0\nsamples = 2\nvalue = [2, 0]", fillcolor="#e58139"] ;
145 -> 146 ;
147 [label="Fare <= 52.827\nentropy = 0.918\nsamples = 6\nvalue = [2, 4]", fillcolor="#9ccef2"] ;
145 -> 147 ;
148 [label="entropy = 0.0\nsamples = 2\nvalue = [0, 2]", fillcolor="#399de5"] ;
147 -> 148 ;
149 [label="Age <= 33.5\nentropy = 1.0\nsamples = 4\nvalue = [2, 2]", fillcolor="#ffffff"] ;
147 -> 149 ;
150 [label="entropy = 0.0\nsamples = 1\nvalue = [0, 1]", fillcolor="#399de5"] ;
149 -> 150 ;
151 [label="Age <= 37.5\nentropy = 0.918\nsamples = 3\nvalue = [2, 1]", fillcolor="#f2c09c"] ;
149 -> 151 ;
152 [label="entropy = 0.0\nsamples = 2\nvalue = [2, 0]", fillcolor="#e58139"] ;
151 -> 152 ;
153 [label="entropy = 0.0\nsamples = 1\nvalue = [0, 1]", fillcolor="#399de5"] ;
151 -> 153 ;
154 [label="entropy = 0.0\nsamples = 3\nvalue = [3, 0]", fillcolor="#e58139"] ;
142 -> 154 ;
155 [label="Fare <= 99.994\nentropy = 0.722\nsamples = 5\nvalue = [1, 4]", fillcolor="#6ab6ec"] ;
141 -> 155 ;
156 [label="entropy = 0.0\nsamples = 4\nvalue = [0, 4]", fillcolor="#399de5"] ;
155 -> 156 ;
157 [label="entropy = 0.0\nsamples = 1\nvalue = [1, 0]", fillcolor="#e58139"] ;
155 -> 157 ;
158 [label="entropy = 0.0\nsamples = 3\nvalue = [3, 0]", fillcolor="#e58139"] ;
140 -> 158 ;
159 [label="entropy = 0.0\nsamples = 2\nvalue = [0, 2]", fillcolor="#399de5"] ;
139 -> 159 ;
160 [label="entropy = 0.0\nsamples = 2\nvalue = [0, 2]", fillcolor="#399de5"] ;
126 -> 160 ;
161 [label="Age <= 75.5\nentropy = 0.575\nsamples = 22\nvalue = [19, 3]", fillcolor="#e99558"] ;
105 -> 161 ;
162 [label="Embarked <= 1.0\nentropy = 0.454\nsamples = 21\nvalue = [19, 2]", fillcolor="#e88e4e"] ;
161 -> 162 ;
163 [label="SibSp <= 0.5\nentropy = 0.811\nsamples = 8\nvalue = [6, 2]", fillcolor="#eeab7b"] ;
162 -> 163 ;
164 [label="Age <= 57.0\nentropy = 0.592\nsamples = 7\nvalue = [6, 1]", fillcolor="#e9965a"] ;
163 -> 164 ;
165 [label="Fare <= 33.098\nentropy = 1.0\nsamples = 2\nvalue = [1, 1]", fillcolor="#ffffff"] ;
164 -> 165 ;
166 [label="entropy = 0.0\nsamples = 1\nvalue = [1, 0]", fillcolor="#e58139"] ;
165 -> 166 ;
167 [label="entropy = 0.0\nsamples = 1\nvalue = [0, 1]", fillcolor="#399de5"] ;
165 -> 167 ;
168 [label="entropy = 0.0\nsamples = 5\nvalue = [5, 0]", fillcolor="#e58139"] ;
164 -> 168 ;
169 [label="entropy = 0.0\nsamples = 1\nvalue = [0, 1]", fillcolor="#399de5"] ;
163 -> 169 ;
170 [label="entropy = 0.0\nsamples = 13\nvalue = [13, 0]", fillcolor="#e58139"] ;
162 -> 170 ;
171 [label="entropy = 0.0\nsamples = 1\nvalue = [0, 1]", fillcolor="#399de5"] ;
161 -> 171 ;
172 [label="Age <= 9.5\nentropy = 0.611\nsamples = 352\nvalue = [299, 53]", fillcolor="#ea975c"] ;
104 -> 172 ;
173 [label="SibSp <= 2.5\nentropy = 0.987\nsamples = 30\nvalue = [13, 17]", fillcolor="#d0e8f9"] ;
172 -> 173 ;
174 [label="entropy = 0.0\nsamples = 16\nvalue = [0, 16]", fillcolor="#399de5"] ;
173 -> 174 ;
175 [label="Age <= 3.5\nentropy = 0.371\nsamples = 14\nvalue = [13, 1]", fillcolor="#e78b48"] ;
173 -> 175 ;
176 [label="Age <= 2.5\nentropy = 0.65\nsamples = 6\nvalue = [5, 1]", fillcolor="#ea9a61"] ;
175 -> 176 ;
177 [label="entropy = 0.0\nsamples = 5\nvalue = [5, 0]", fillcolor="#e58139"] ;
176 -> 177 ;
178 [label="entropy = 0.0\nsamples = 1\nvalue = [0, 1]", fillcolor="#399de5"] ;
176 -> 178 ;
179 [label="entropy = 0.0\nsamples = 8\nvalue = [8, 0]", fillcolor="#e58139"] ;
175 -> 179 ;
180 [label="Age <= 32.25\nentropy = 0.505\nsamples = 322\nvalue = [286, 36]", fillcolor="#e89152"] ;
172 -> 180 ;
181 [label="Age <= 30.75\nentropy = 0.58\nsamples = 217\nvalue = [187, 30]", fillcolor="#e99559"] ;
180 -> 181 ;
182 [label="Embarked <= 1.5\nentropy = 0.507\nsamples = 196\nvalue = [174, 22]", fillcolor="#e89152"] ;
181 -> 182 ;
183 [label="Pclass <= 2.5\nentropy = 0.84\nsamples = 26\nvalue = [19, 7]", fillcolor="#efaf82"] ;
182 -> 183 ;
184 [label="entropy = 0.0\nsamples = 4\nvalue = [4, 0]", fillcolor="#e58139"] ;
183 -> 184 ;
185 [label="Fare <= 7.746\nentropy = 0.902\nsamples = 22\nvalue = [15, 7]", fillcolor="#f1bc95"] ;
183 -> 185 ;
186 [label="Age <= 22.75\nentropy = 0.592\nsamples = 14\nvalue = [12, 2]", fillcolor="#e9965a"] ;
185 -> 186 ;
187 [label="Age <= 19.5\nentropy = 0.811\nsamples = 8\nvalue = [6, 2]", fillcolor="#eeab7b"] ;
186 -> 187 ;
188 [label="entropy = 0.0\nsamples = 3\nvalue = [3, 0]", fillcolor="#e58139"] ;
187 -> 188 ;
189 [label="Fare <= 5.619\nentropy = 0.971\nsamples = 5\nvalue = [3, 2]", fillcolor="#f6d5bd"] ;
187 -> 189 ;
190 [label="entropy = 0.0\nsamples = 1\nvalue = [1, 0]", fillcolor="#e58139"] ;
189 -> 190 ;
191 [label="Fare <= 7.227\nentropy = 1.0\nsamples = 4\nvalue = [2, 2]", fillcolor="#ffffff"] ;
189 -> 191 ;
192 [label="entropy = 0.0\nsamples = 1\nvalue = [0, 1]", fillcolor="#399de5"] ;
191 -> 192 ;
193 [label="Age <= 20.5\nentropy = 0.918\nsamples = 3\nvalue = [2, 1]", fillcolor="#f2c09c"] ;
191 -> 193 ;
194 [label="entropy = 0.0\nsamples = 1\nvalue = [0, 1]", fillcolor="#399de5"] ;
193 -> 194 ;
195 [label="entropy = 0.0\nsamples = 2\nvalue = [2, 0]", fillcolor="#e58139"] ;
193 -> 195 ;
196 [label="entropy = 0.0\nsamples = 6\nvalue = [6, 0]", fillcolor="#e58139"] ;
186 -> 196 ;
197 [label="Fare <= 12.848\nentropy = 0.954\nsamples = 8\nvalue = [3, 5]", fillcolor="#b0d8f5"] ;
185 -> 197 ;
198 [label="entropy = 0.0\nsamples = 3\nvalue = [0, 3]", fillcolor="#399de5"] ;
197 -> 198 ;
199 [label="Fare <= 15.098\nentropy = 0.971\nsamples = 5\nvalue = [3, 2]", fillcolor="#f6d5bd"] ;
197 -> 199 ;
200 [label="entropy = 0.0\nsamples = 2\nvalue = [2, 0]", fillcolor="#e58139"] ;
199 -> 200 ;
201 [label="Age <= 15.5\nentropy = 0.918\nsamples = 3\nvalue = [1, 2]", fillcolor="#9ccef2"] ;
199 -> 201 ;
202 [label="entropy = 0.0\nsamples = 1\nvalue = [1, 0]", fillcolor="#e58139"] ;
201 -> 202 ;
203 [label="entropy = 0.0\nsamples = 2\nvalue = [0, 2]", fillcolor="#399de5"] ;
201 -> 203 ;
204 [label="Fare <= 11.0\nentropy = 0.431\nsamples = 170\nvalue = [155, 15]", fillcolor="#e88d4c"] ;
182 -> 204 ;
205 [label="Fare <= 7.01\nentropy = 0.523\nsamples = 119\nvalue = [105, 14]", fillcolor="#e89253"] ;
204 -> 205 ;
206 [label="Age <= 22.0\nentropy = 1.0\nsamples = 4\nvalue = [2, 2]", fillcolor="#ffffff"] ;
205 -> 206 ;
207 [label="entropy = 0.0\nsamples = 2\nvalue = [2, 0]", fillcolor="#e58139"] ;
206 -> 207 ;
208 [label="entropy = 0.0\nsamples = 2\nvalue = [0, 2]", fillcolor="#399de5"] ;
206 -> 208 ;
209 [label="Fare <= 7.133\nentropy = 0.483\nsamples = 115\nvalue = [103, 12]", fillcolor="#e89050"] ;
205 -> 209 ;
210 [label="entropy = 0.0\nsamples = 8\nvalue = [8, 0]", fillcolor="#e58139"] ;
209 -> 210 ;
211 [label="Fare <= 7.196\nentropy = 0.506\nsamples = 107\nvalue = [95, 12]", fillcolor="#e89152"] ;
209 -> 211 ;
212 [label="entropy = 0.0\nsamples = 1\nvalue = [0, 1]", fillcolor="#399de5"] ;
211 -> 212 ;
213 [label="Fare <= 7.763\nentropy = 0.481\nsamples = 106\nvalue = [95, 11]", fillcolor="#e89050"] ;
211 -> 213 ;
214 [label="entropy = 0.0\nsamples = 12\nvalue = [12, 0]", fillcolor="#e58139"] ;
213 -> 214 ;
215 [label="SibSp <= 0.5\nentropy = 0.521\nsamples = 94\nvalue = [83, 11]", fillcolor="#e89253"] ;
213 -> 215 ;
216 [label="Fare <= 7.988\nentropy = 0.48\nsamples = 87\nvalue = [78, 9]", fillcolor="#e89050"] ;
215 -> 216 ;
217 [label="Fare <= 7.798\nentropy = 0.303\nsamples = 37\nvalue = [35, 2]", fillcolor="#e68844"] ;
216 -> 217 ;
218 [label="Fare <= 7.785\nentropy = 0.65\nsamples = 12\nvalue = [10, 2]", fillcolor="#ea9a61"] ;
217 -> 218 ;
219 [label="entropy = 0.0\nsamples = 6\nvalue = [6, 0]", fillcolor="#e58139"] ;
218 -> 219 ;
220 [label="Age <= 19.5\nentropy = 0.918\nsamples = 6\nvalue = [4, 2]", fillcolor="#f2c09c"] ;
218 -> 220 ;
221 [label="entropy = 0.0\nsamples = 1\nvalue = [1, 0]", fillcolor="#e58139"] ;
220 -> 221 ;
222 [label="Age <= 21.5\nentropy = 0.971\nsamples = 5\nvalue = [3, 2]", fillcolor="#f6d5bd"] ;
220 -> 222 ;
223 [label="entropy = 0.0\nsamples = 1\nvalue = [0, 1]", fillcolor="#399de5"] ;
222 -> 223 ;
224 [label="Age <= 25.5\nentropy = 0.811\nsamples = 4\nvalue = [3, 1]", fillcolor="#eeab7b"] ;
222 -> 224 ;
225 [label="entropy = 0.0\nsamples = 2\nvalue = [2, 0]", fillcolor="#e58139"] ;
224 -> 225 ;
226 [label="Age <= 27.5\nentropy = 1.0\nsamples = 2\nvalue = [1, 1]", fillcolor="#ffffff"] ;
224 -> 226 ;
227 [label="entropy = 0.0\nsamples = 1\nvalue = [0, 1]", fillcolor="#399de5"] ;
226 -> 227 ;
228 [label="entropy = 0.0\nsamples = 1\nvalue = [1, 0]", fillcolor="#e58139"] ;
226 -> 228 ;
229 [label="entropy = 0.0\nsamples = 25\nvalue = [25, 0]", fillcolor="#e58139"] ;
217 -> 229 ;
230 [label="Age <= 19.5\nentropy = 0.584\nsamples = 50\nvalue = [43, 7]", fillcolor="#e99659"] ;
216 -> 230 ;
231 [label="Fare <= 8.104\nentropy = 0.811\nsamples = 16\nvalue = [12, 4]", fillcolor="#eeab7b"] ;
230 -> 231 ;
232 [label="Age <= 17.0\nentropy = 0.971\nsamples = 5\nvalue = [2, 3]", fillcolor="#bddef6"] ;
231 -> 232 ;
233 [label="entropy = 1.0\nsamples = 2\nvalue = [1, 1]", fillcolor="#ffffff"] ;
232 -> 233 ;
234 [label="Age <= 18.5\nentropy = 0.918\nsamples = 3\nvalue = [1, 2]", fillcolor="#9ccef2"] ;
232 -> 234 ;
235 [label="entropy = 0.0\nsamples = 1\nvalue = [0, 1]", fillcolor="#399de5"] ;
234 -> 235 ;
236 [label="entropy = 1.0\nsamples = 2\nvalue = [1, 1]", fillcolor="#ffffff"] ;
234 -> 236 ;
237 [label="Fare <= 10.335\nentropy = 0.439\nsamples = 11\nvalue = [10, 1]", fillcolor="#e88e4d"] ;
231 -> 237 ;
238 [label="entropy = 0.0\nsamples = 8\nvalue = [8, 0]", fillcolor="#e58139"] ;
237 -> 238 ;
239 [label="Age <= 17.5\nentropy = 0.918\nsamples = 3\nvalue = [2, 1]", fillcolor="#f2c09c"] ;
237 -> 239 ;
240 [label="entropy = 0.0\nsamples = 1\nvalue = [1, 0]", fillcolor="#e58139"] ;
239 -> 240 ;
241 [label="entropy = 1.0\nsamples = 2\nvalue = [1, 1]", fillcolor="#ffffff"] ;
239 -> 241 ;
242 [label="Age <= 26.5\nentropy = 0.431\nsamples = 34\nvalue = [31, 3]", fillcolor="#e88d4c"] ;
230 -> 242 ;
243 [label="entropy = 0.0\nsamples = 21\nvalue = [21, 0]", fillcolor="#e58139"] ;
242 -> 243 ;
244 [label="Age <= 27.5\nentropy = 0.779\nsamples = 13\nvalue = [10, 3]", fillcolor="#eda774"] ;
242 -> 244 ;
245 [label="entropy = 0.0\nsamples = 1\nvalue = [0, 1]", fillcolor="#399de5"] ;
244 -> 245 ;
246 [label="Fare <= 9.492\nentropy = 0.65\nsamples = 12\nvalue = [10, 2]", fillcolor="#ea9a61"] ;
244 -> 246 ;
247 [label="entropy = 0.0\nsamples = 5\nvalue = [5, 0]", fillcolor="#e58139"] ;
246 -> 247 ;
248 [label="Fare <= 10.0\nentropy = 0.863\nsamples = 7\nvalue = [5, 2]", fillcolor="#efb388"] ;
246 -> 248 ;
249 [label="Age <= 28.5\nentropy = 1.0\nsamples = 4\nvalue = [2, 2]", fillcolor="#ffffff"] ;
248 -> 249 ;
250 [label="entropy = 0.0\nsamples = 2\nvalue = [2, 0]", fillcolor="#e58139"] ;
249 -> 250 ;
251 [label="entropy = 0.0\nsamples = 2\nvalue = [0, 2]", fillcolor="#399de5"] ;
249 -> 251 ;
252 [label="entropy = 0.0\nsamples = 3\nvalue = [3, 0]", fillcolor="#e58139"] ;
248 -> 252 ;
253 [label="Age <= 25.5\nentropy = 0.863\nsamples = 7\nvalue = [5, 2]", fillcolor="#efb388"] ;
215 -> 253 ;
254 [label="Fare <= 7.89\nentropy = 1.0\nsamples = 4\nvalue = [2, 2]", fillcolor="#ffffff"] ;
253 -> 254 ;
255 [label="Age <= 21.5\nentropy = 0.918\nsamples = 3\nvalue = [2, 1]", fillcolor="#f2c09c"] ;
254 -> 255 ;
256 [label="entropy = 0.0\nsamples = 1\nvalue = [1, 0]", fillcolor="#e58139"] ;
255 -> 256 ;
257 [label="entropy = 1.0\nsamples = 2\nvalue = [1, 1]", fillcolor="#ffffff"] ;
255 -> 257 ;
258 [label="entropy = 0.0\nsamples = 1\nvalue = [0, 1]", fillcolor="#399de5"] ;
254 -> 258 ;
259 [label="entropy = 0.0\nsamples = 3\nvalue = [3, 0]", fillcolor="#e58139"] ;
253 -> 259 ;
260 [label="Fare <= 51.698\nentropy = 0.139\nsamples = 51\nvalue = [50, 1]", fillcolor="#e6843d"] ;
204 -> 260 ;
261 [label="entropy = 0.0\nsamples = 45\nvalue = [45, 0]", fillcolor="#e58139"] ;
260 -> 261 ;
262 [label="Pclass <= 2.5\nentropy = 0.65\nsamples = 6\nvalue = [5, 1]", fillcolor="#ea9a61"] ;
260 -> 262 ;
263 [label="entropy = 0.0\nsamples = 4\nvalue = [4, 0]", fillcolor="#e58139"] ;
262 -> 263 ;
264 [label="Age <= 27.0\nentropy = 1.0\nsamples = 2\nvalue = [1, 1]", fillcolor="#ffffff"] ;
262 -> 264 ;
265 [label="entropy = 0.0\nsamples = 1\nvalue = [0, 1]", fillcolor="#399de5"] ;
264 -> 265 ;
266 [label="entropy = 0.0\nsamples = 1\nvalue = [1, 0]", fillcolor="#e58139"] ;
264 -> 266 ;
267 [label="Fare <= 7.815\nentropy = 0.959\nsamples = 21\nvalue = [13, 8]", fillcolor="#f5cfb3"] ;
181 -> 267 ;
268 [label="entropy = 0.0\nsamples = 3\nvalue = [3, 0]", fillcolor="#e58139"] ;
267 -> 268 ;
269 [label="Parch <= 0.5\nentropy = 0.991\nsamples = 18\nvalue = [10, 8]", fillcolor="#fae6d7"] ;
267 -> 269 ;
270 [label="Fare <= 7.875\nentropy = 1.0\nsamples = 16\nvalue = [8, 8]", fillcolor="#ffffff"] ;
269 -> 270 ;
271 [label="entropy = 0.0\nsamples = 1\nvalue = [0, 1]", fillcolor="#399de5"] ;
270 -> 271 ;
272 [label="Fare <= 20.925\nentropy = 0.997\nsamples = 15\nvalue = [8, 7]", fillcolor="#fcefe6"] ;
270 -> 272 ;
273 [label="Age <= 31.5\nentropy = 0.946\nsamples = 11\nvalue = [7, 4]", fillcolor="#f4c9aa"] ;
272 -> 273 ;
274 [label="Fare <= 9.213\nentropy = 0.918\nsamples = 3\nvalue = [1, 2]", fillcolor="#9ccef2"] ;
273 -> 274 ;
275 [label="entropy = 0.0\nsamples = 1\nvalue = [0, 1]", fillcolor="#399de5"] ;
274 -> 275 ;
276 [label="Fare <= 11.75\nentropy = 1.0\nsamples = 2\nvalue = [1, 1]", fillcolor="#ffffff"] ;
274 -> 276 ;
277 [label="entropy = 0.0\nsamples = 1\nvalue = [1, 0]", fillcolor="#e58139"] ;
276 -> 277 ;
278 [label="entropy = 0.0\nsamples = 1\nvalue = [0, 1]", fillcolor="#399de5"] ;
276 -> 278 ;
279 [label="Fare <= 8.206\nentropy = 0.811\nsamples = 8\nvalue = [6, 2]", fillcolor="#eeab7b"] ;
273 -> 279 ;
280 [label="Fare <= 7.988\nentropy = 0.971\nsamples = 5\nvalue = [3, 2]", fillcolor="#f6d5bd"] ;
279 -> 280 ;
281 [label="Fare <= 7.91\nentropy = 0.811\nsamples = 4\nvalue = [3, 1]", fillcolor="#eeab7b"] ;
280 -> 281 ;
282 [label="entropy = 0.0\nsamples = 1\nvalue = [1, 0]", fillcolor="#e58139"] ;
281 -> 282 ;
283 [label="entropy = 0.918\nsamples = 3\nvalue = [2, 1]", fillcolor="#f2c09c"] ;
281 -> 283 ;
284 [label="entropy = 0.0\nsamples = 1\nvalue = [0, 1]", fillcolor="#399de5"] ;
280 -> 284 ;
285 [label="entropy = 0.0\nsamples = 3\nvalue = [3, 0]", fillcolor="#e58139"] ;
279 -> 285 ;
286 [label="SibSp <= 1.5\nentropy = 0.811\nsamples = 4\nvalue = [1, 3]", fillcolor="#7bbeee"] ;
272 -> 286 ;
287 [label="entropy = 0.0\nsamples = 3\nvalue = [0, 3]", fillcolor="#399de5"] ;
286 -> 287 ;
288 [label="entropy = 0.0\nsamples = 1\nvalue = [1, 0]", fillcolor="#e58139"] ;
286 -> 288 ;
289 [label="entropy = 0.0\nsamples = 2\nvalue = [2, 0]", fillcolor="#e58139"] ;
269 -> 289 ;
290 [label="Fare <= 7.91\nentropy = 0.316\nsamples = 105\nvalue = [99, 6]", fillcolor="#e78945"] ;
180 -> 290 ;
291 [label="entropy = 0.0\nsamples = 32\nvalue = [32, 0]", fillcolor="#e58139"] ;
290 -> 291 ;
292 [label="Fare <= 13.25\nentropy = 0.41\nsamples = 73\nvalue = [67, 6]", fillcolor="#e78c4b"] ;
290 -> 292 ;
293 [label="Fare <= 7.988\nentropy = 0.592\nsamples = 42\nvalue = [36, 6]", fillcolor="#e9965a"] ;
292 -> 293 ;
294 [label="SibSp <= 1.0\nentropy = 1.0\nsamples = 4\nvalue = [2, 2]", fillcolor="#ffffff"] ;
293 -> 294 ;
295 [label="Age <= 41.5\nentropy = 0.918\nsamples = 3\nvalue = [1, 2]", fillcolor="#9ccef2"] ;
294 -> 295 ;
296 [label="entropy = 1.0\nsamples = 2\nvalue = [1, 1]", fillcolor="#ffffff"] ;
295 -> 296 ;
297 [label="entropy = 0.0\nsamples = 1\nvalue = [0, 1]", fillcolor="#399de5"] ;
295 -> 297 ;
298 [label="entropy = 0.0\nsamples = 1\nvalue = [1, 0]", fillcolor="#e58139"] ;
294 -> 298 ;
299 [label="Age <= 59.5\nentropy = 0.485\nsamples = 38\nvalue = [34, 4]", fillcolor="#e89050"] ;
293 -> 299 ;
300 [label="Age <= 46.0\nentropy = 0.422\nsamples = 35\nvalue = [32, 3]", fillcolor="#e78d4c"] ;
299 -> 300 ;
301 [label="Age <= 44.5\nentropy = 0.516\nsamples = 26\nvalue = [23, 3]", fillcolor="#e89153"] ;
300 -> 301 ;
302 [label="Fare <= 12.938\nentropy = 0.402\nsamples = 25\nvalue = [23, 2]", fillcolor="#e78c4a"] ;
301 -> 302 ;
303 [label="entropy = 0.0\nsamples = 17\nvalue = [17, 0]", fillcolor="#e58139"] ;
302 -> 303 ;
304 [label="Age <= 40.5\nentropy = 0.811\nsamples = 8\nvalue = [6, 2]", fillcolor="#eeab7b"] ;
302 -> 304 ;
305 [label="Age <= 35.0\nentropy = 0.65\nsamples = 6\nvalue = [5, 1]", fillcolor="#ea9a61"] ;
304 -> 305 ;
306 [label="entropy = 0.918\nsamples = 3\nvalue = [2, 1]", fillcolor="#f2c09c"] ;
305 -> 306 ;
307 [label="entropy = 0.0\nsamples = 3\nvalue = [3, 0]", fillcolor="#e58139"] ;
305 -> 307 ;
308 [label="entropy = 1.0\nsamples = 2\nvalue = [1, 1]", fillcolor="#ffffff"] ;
304 -> 308 ;
309 [label="entropy = 0.0\nsamples = 1\nvalue = [0, 1]", fillcolor="#399de5"] ;
301 -> 309 ;
310 [label="entropy = 0.0\nsamples = 9\nvalue = [9, 0]", fillcolor="#e58139"] ;
300 -> 310 ;
311 [label="Age <= 64.0\nentropy = 0.918\nsamples = 3\nvalue = [2, 1]", fillcolor="#f2c09c"] ;
299 -> 311 ;
312 [label="entropy = 0.0\nsamples = 1\nvalue = [0, 1]", fillcolor="#399de5"] ;
311 -> 312 ;
313 [label="entropy = 0.0\nsamples = 2\nvalue = [2, 0]", fillcolor="#e58139"] ;
311 -> 313 ;
314 [label="entropy = 0.0\nsamples = 31\nvalue = [31, 0]", fillcolor="#e58139"] ;
292 -> 314 ;
}