digraph Tree {
node [shape=box, style="filled, rounded", color="black", fontname=helvetica] ;
edge [fontname=helvetica] ;
0 [label="Sex <= 0.5\ngini = 0.482\nsamples = 712\nvalue = [424, 288]", fillcolor="#f7d7bf"] ;
1 [label="Pclass <= 2.5\ngini = 0.372\nsamples = 259\nvalue = [64, 195]", fillcolor="#7abdee"] ;
0 -> 1 [labeldistance=2.5, labelangle=45, headlabel="True"] ;
2 [label="Age <= 2.5\ngini = 0.108\nsamples = 157\nvalue = [9, 148]", fillcolor="#45a3e7"] ;
1 -> 2 ;
3 [label="Parch <= 1.5\ngini = 0.5\nsamples = 2\nvalue = [1, 1]", fillcolor="#ffffff"] ;
2 -> 3 ;
4 [label="gini = 0.0\nsamples = 1\nvalue = [0, 1]", fillcolor="#399de5"] ;
3 -> 4 ;
5 [label="gini = 0.0\nsamples = 1\nvalue = [1, 0]", fillcolor="#e58139"] ;
3 -> 5 ;
6 [label="Fare <= 28.856\ngini = 0.098\nsamples = 155\nvalue = [8, 147]", fillcolor="#44a2e6"] ;
2 -> 6 ;
7 [label="Fare <= 28.231\ngini = 0.185\nsamples = 68\nvalue = [7, 61]", fillcolor="#50a8e8"] ;
6 -> 7 ;
8 [label="Age <= 56.0\ngini = 0.163\nsamples = 67\nvalue = [6, 61]", fillcolor="#4ca7e8"] ;
7 -> 8 ;
9 [label="SibSp <= 0.5\ngini = 0.142\nsamples = 65\nvalue = [5, 60]", fillcolor="#49a5e7"] ;
8 -> 9 ;
10 [label="Fare <= 13.25\ngini = 0.087\nsamples = 44\nvalue = [2, 42]", fillcolor="#42a2e6"] ;
9 -> 10 ;
11 [label="Fare <= 12.825\ngini = 0.153\nsamples = 24\nvalue = [2, 22]", fillcolor="#4ba6e7"] ;
10 -> 11 ;
12 [label="gini = 0.0\nsamples = 10\nvalue = [0, 10]", fillcolor="#399de5"] ;
11 -> 12 ;
13 [label="Age <= 26.0\ngini = 0.245\nsamples = 14\nvalue = [2, 12]", fillcolor="#5aade9"] ;
11 -> 13 ;
14 [label="Age <= 21.0\ngini = 0.444\nsamples = 3\nvalue = [1, 2]", fillcolor="#9ccef2"] ;
13 -> 14 ;
15 [label="gini = 0.0\nsamples = 1\nvalue = [0, 1]", fillcolor="#399de5"] ;
14 -> 15 ;
16 [label="gini = 0.5\nsamples = 2\nvalue = [1, 1]", fillcolor="#ffffff"] ;
14 -> 16 ;
17 [label="Age <= 37.0\ngini = 0.165\nsamples = 11\nvalue = [1, 10]", fillcolor="#4da7e8"] ;
13 -> 17 ;
18 [label="gini = 0.0\nsamples = 8\nvalue = [0, 8]", fillcolor="#399de5"] ;
17 -> 18 ;
19 [label="Age <= 39.0\ngini = 0.444\nsamples = 3\nvalue = [1, 2]", fillcolor="#9ccef2"] ;
17 -> 19 ;
20 [label="gini = 0.0\nsamples = 1\nvalue = [1, 0]", fillcolor="#e58139"] ;
19 -> 20 ;
21 [label="gini = 0.0\nsamples = 2\nvalue = [0, 2]", fillcolor="#399de5"] ;
19 -> 21 ;
22 [label="gini = 0.0\nsamples = 20\nvalue = [0, 20]", fillcolor="#399de5"] ;
10 -> 22 ;
23 [label="Age <= 25.0\ngini = 0.245\nsamples = 21\nvalue = [3, 18]", fillcolor="#5aade9"] ;
9 -> 23 ;
24 [label="gini = 0.0\nsamples = 6\nvalue = [0, 6]", fillcolor="#399de5"] ;
23 -> 24 ;
25 [label="Age <= 27.5\ngini = 0.32\nsamples = 15\nvalue = [3, 12]", fillcolor="#6ab6ec"] ;
23 -> 25 ;
26 [label="Embarked <= 1.0\ngini = 0.444\nsamples = 3\nvalue = [2, 1]", fillcolor="#f2c09c"] ;
25 -> 26 ;
27 [label="gini = 0.0\nsamples = 1\nvalue = [0, 1]", fillcolor="#399de5"] ;
26 -> 27 ;
28 [label="gini = 0.0\nsamples = 2\nvalue = [2, 0]", fillcolor="#e58139"] ;
26 -> 28 ;
29 [label="Age <= 43.0\ngini = 0.153\nsamples = 12\nvalue = [1, 11]", fillcolor="#4ba6e7"] ;
25 -> 29 ;
30 [label="gini = 0.0\nsamples = 9\nvalue = [0, 9]", fillcolor="#399de5"] ;
29 -> 30 ;
31 [label="Parch <= 0.5\ngini = 0.444\nsamples = 3\nvalue = [1, 2]", fillcolor="#9ccef2"] ;
29 -> 31 ;
32 [label="gini = 0.0\nsamples = 1\nvalue = [1, 0]", fillcolor="#e58139"] ;
31 -> 32 ;
33 [label="gini = 0.0\nsamples = 2\nvalue = [0, 2]", fillcolor="#399de5"] ;
31 -> 33 ;
34 [label="Fare <= 18.525\ngini = 0.5\nsamples = 2\nvalue = [1, 1]", fillcolor="#ffffff"] ;
8 -> 34 ;
35 [label="gini = 0.0\nsamples = 1\nvalue = [1, 0]", fillcolor="#e58139"] ;
34 -> 35 ;
36 [label="gini = 0.0\nsamples = 1\nvalue = [0, 1]", fillcolor="#399de5"] ;
34 -> 36 ;
37 [label="gini = 0.0\nsamples = 1\nvalue = [1, 0]", fillcolor="#e58139"] ;
7 -> 37 ;
38 [label="Parch <= 1.5\ngini = 0.023\nsamples = 87\nvalue = [1, 86]", fillcolor="#3b9ee5"] ;
6 -> 38 ;
39 [label="gini = 0.0\nsamples = 72\nvalue = [0, 72]", fillcolor="#399de5"] ;
38 -> 39 ;
40 [label="Age <= 24.5\ngini = 0.124\nsamples = 15\nvalue = [1, 14]", fillcolor="#47a4e7"] ;
38 -> 40 ;
41 [label="gini = 0.0\nsamples = 10\nvalue = [0, 10]", fillcolor="#399de5"] ;
40 -> 41 ;
42 [label="Age <= 28.0\ngini = 0.32\nsamples = 5\nvalue = [1, 4]", fillcolor="#6ab6ec"] ;
40 -> 42 ;
43 [label="gini = 0.0\nsamples = 1\nvalue = [1, 0]", fillcolor="#e58139"] ;
42 -> 43 ;
44 [label="gini = 0.0\nsamples = 4\nvalue = [0, 4]", fillcolor="#399de5"] ;
42 -> 44 ;
45 [label="Fare <= 20.8\ngini = 0.497\nsamples = 102\nvalue = [55, 47]", fillcolor="#fbede2"] ;
1 -> 45 ;
46 [label="Age <= 16.5\ngini = 0.494\nsamples = 79\nvalue = [35, 44]", fillcolor="#d7ebfa"] ;
45 -> 46 ;
47 [label="Age <= 14.75\ngini = 0.32\nsamples = 20\nvalue = [4, 16]", fillcolor="#6ab6ec"] ;
46 -> 47 ;
48 [label="Age <= 7.0\ngini = 0.391\nsamples = 15\nvalue = [4, 11]", fillcolor="#81c1ee"] ;
47 -> 48 ;
49 [label="Fare <= 10.798\ngini = 0.18\nsamples = 10\nvalue = [1, 9]", fillcolor="#4fa8e8"] ;
48 -> 49 ;
50 [label="gini = 0.0\nsamples = 1\nvalue = [1, 0]", fillcolor="#e58139"] ;
49 -> 50 ;
51 [label="gini = 0.0\nsamples = 9\nvalue = [0, 9]", fillcolor="#399de5"] ;
49 -> 51 ;
52 [label="Fare <= 12.848\ngini = 0.48\nsamples = 5\nvalue = [3, 2]", fillcolor="#f6d5bd"] ;
48 -> 52 ;
53 [label="Embarked <= 1.0\ngini = 0.444\nsamples = 3\nvalue = [1, 2]", fillcolor="#9ccef2"] ;
52 -> 53 ;
54 [label="gini = 0.0\nsamples = 2\nvalue = [0, 2]", fillcolor="#399de5"] ;
53 -> 54 ;
55 [label="gini = 0.0\nsamples = 1\nvalue = [1, 0]", fillcolor="#e58139"] ;
53 -> 55 ;
56 [label="gini = 0.0\nsamples = 2\nvalue = [2, 0]", fillcolor="#e58139"] ;
52 -> 56 ;
57 [label="gini = 0.0\nsamples = 5\nvalue = [0, 5]", fillcolor="#399de5"] ;
47 -> 57 ;
58 [label="Age <= 36.5\ngini = 0.499\nsamples = 59\nvalue = [31, 28]", fillcolor="#fcf3ec"] ;
46 -> 58 ;
59 [label="Parch <= 1.5\ngini = 0.499\nsamples = 52\nvalue = [25, 27]", fillcolor="#f0f8fd"] ;
58 -> 59 ;
60 [label="Age <= 32.5\ngini = 0.498\nsamples = 47\nvalue = [25, 22]", fillcolor="#fcf0e7"] ;
59 -> 60 ;
61 [label="Fare <= 7.888\ngini = 0.491\nsamples = 44\nvalue = [25, 19]", fillcolor="#f9e1cf"] ;
60 -> 61 ;
62 [label="Age <= 28.25\ngini = 0.469\nsamples = 16\nvalue = [6, 10]", fillcolor="#b0d8f5"] ;
61 -> 62 ;
63 [label="Age <= 18.5\ngini = 0.408\nsamples = 14\nvalue = [4, 10]", fillcolor="#88c4ef"] ;
62 -> 63 ;
64 [label="Fare <= 7.123\ngini = 0.444\nsamples = 3\nvalue = [2, 1]", fillcolor="#f2c09c"] ;
63 -> 64 ;
65 [label="gini = 0.0\nsamples = 1\nvalue = [1, 0]", fillcolor="#e58139"] ;
64 -> 65 ;
66 [label="Fare <= 7.635\ngini = 0.5\nsamples = 2\nvalue = [1, 1]", fillcolor="#ffffff"] ;
64 -> 66 ;
67 [label="gini = 0.0\nsamples = 1\nvalue = [0, 1]", fillcolor="#399de5"] ;
66 -> 67 ;
68 [label="gini = 0.0\nsamples = 1\nvalue = [1, 0]", fillcolor="#e58139"] ;
66 -> 68 ;
69 [label="Age <= 24.0\ngini = 0.298\nsamples = 11\nvalue = [2, 9]", fillcolor="#65b3eb"] ;
63 -> 69 ;
70 [label="Embarked <= 1.5\ngini = 0.198\nsamples = 9\nvalue = [1, 8]", fillcolor="#52a9e8"] ;
69 -> 70 ;
71 [label="Age <= 20.0\ngini = 0.444\nsamples = 3\nvalue = [1, 2]", fillcolor="#9ccef2"] ;
70 -> 71 ;
72 [label="gini = 0.0\nsamples = 1\nvalue = [0, 1]", fillcolor="#399de5"] ;
71 -> 72 ;
73 [label="Age <= 21.5\ngini = 0.5\nsamples = 2\nvalue = [1, 1]", fillcolor="#ffffff"] ;
71 -> 73 ;
74 [label="gini = 0.0\nsamples = 1\nvalue = [1, 0]", fillcolor="#e58139"] ;
73 -> 74 ;
75 [label="gini = 0.0\nsamples = 1\nvalue = [0, 1]", fillcolor="#399de5"] ;
73 -> 75 ;
76 [label="gini = 0.0\nsamples = 6\nvalue = [0, 6]", fillcolor="#399de5"] ;
70 -> 76 ;
77 [label="Age <= 25.5\ngini = 0.5\nsamples = 2\nvalue = [1, 1]", fillcolor="#ffffff"] ;
69 -> 77 ;
78 [label="gini = 0.0\nsamples = 1\nvalue = [1, 0]", fillcolor="#e58139"] ;
77 -> 78 ;
79 [label="gini = 0.0\nsamples = 1\nvalue = [0, 1]", fillcolor="#399de5"] ;
77 -> 79 ;
80 [label="gini = 0.0\nsamples = 2\nvalue = [2, 0]", fillcolor="#e58139"] ;
62 -> 80 ;
81 [label="Age <= 23.5\ngini = 0.436\nsamples = 28\nvalue = [19, 9]", fillcolor="#f1bd97"] ;
61 -> 81 ;
82 [label="Age <= 19.0\ngini = 0.278\nsamples = 12\nvalue = [10, 2]", fillcolor="#ea9a61"] ;
81 -> 82 ;
83 [label="Fare <= 12.148\ngini = 0.444\nsamples = 6\nvalue = [4, 2]", fillcolor="#f2c09c"] ;
82 -> 83 ;
84 [label="gini = 0.0\nsamples = 2\nvalue = [0, 2]", fillcolor="#399de5"] ;
83 -> 84 ;
85 [label="gini = 0.0\nsamples = 4\nvalue = [4, 0]", fillcolor="#e58139"] ;
83 -> 85 ;
86 [label="gini = 0.0\nsamples = 6\nvalue = [6, 0]", fillcolor="#e58139"] ;
82 -> 86 ;
87 [label="SibSp <= 0.5\ngini = 0.492\nsamples = 16\nvalue = [9, 7]", fillcolor="#f9e3d3"] ;
81 -> 87 ;
88 [label="Fare <= 7.91\ngini = 0.469\nsamples = 8\nvalue = [3, 5]", fillcolor="#b0d8f5"] ;
87 -> 88 ;
89 [label="gini = 0.0\nsamples = 1\nvalue = [1, 0]", fillcolor="#e58139"] ;
88 -> 89 ;
90 [label="Age <= 25.0\ngini = 0.408\nsamples = 7\nvalue = [2, 5]", fillcolor="#88c4ef"] ;
88 -> 90 ;
91 [label="gini = 0.0\nsamples = 1\nvalue = [1, 0]", fillcolor="#e58139"] ;
90 -> 91 ;
92 [label="Age <= 28.5\ngini = 0.278\nsamples = 6\nvalue = [1, 5]", fillcolor="#61b1ea"] ;
90 -> 92 ;
93 [label="gini = 0.0\nsamples = 3\nvalue = [0, 3]", fillcolor="#399de5"] ;
92 -> 93 ;
94 [label="Fare <= 8.673\ngini = 0.444\nsamples = 3\nvalue = [1, 2]", fillcolor="#9ccef2"] ;
92 -> 94 ;
95 [label="gini = 0.0\nsamples = 1\nvalue = [1, 0]", fillcolor="#e58139"] ;
94 -> 95 ;
96 [label="gini = 0.0\nsamples = 2\nvalue = [0, 2]", fillcolor="#399de5"] ;
94 -> 96 ;
97 [label="Age <= 24.5\ngini = 0.375\nsamples = 8\nvalue = [6, 2]", fillcolor="#eeab7b"] ;
87 -> 97 ;
98 [label="gini = 0.0\nsamples = 1\nvalue = [0, 1]", fillcolor="#399de5"] ;
97 -> 98 ;
99 [label="Fare <= 19.262\ngini = 0.245\nsamples = 7\nvalue = [6, 1]", fillcolor="#e9965a"] ;
97 -> 99 ;
100 [label="gini = 0.0\nsamples = 6\nvalue = [6, 0]", fillcolor="#e58139"] ;
99 -> 100 ;
101 [label="gini = 0.0\nsamples = 1\nvalue = [0, 1]", fillcolor="#399de5"] ;
99 -> 101 ;
102 [label="gini = 0.0\nsamples = 3\nvalue = [0, 3]", fillcolor="#399de5"] ;
60 -> 102 ;
103 [label="gini = 0.0\nsamples = 5\nvalue = [0, 5]", fillcolor="#399de5"] ;
59 -> 103 ;
104 [label="Age <= 55.0\ngini = 0.245\nsamples = 7\nvalue = [6, 1]", fillcolor="#e9965a"] ;
58 -> 104 ;
105 [label="gini = 0.0\nsamples = 6\nvalue = [6, 0]", fillcolor="#e58139"] ;
104 -> 105 ;
106 [label="gini = 0.0\nsamples = 1\nvalue = [0, 1]", fillcolor="#399de5"] ;
104 -> 106 ;
107 [label="Age <= 5.5\ngini = 0.227\nsamples = 23\nvalue = [20, 3]", fillcolor="#e99457"] ;
45 -> 107 ;
108 [label="Age <= 3.5\ngini = 0.48\nsamples = 5\nvalue = [3, 2]", fillcolor="#f6d5bd"] ;
107 -> 108 ;
109 [label="gini = 0.0\nsamples = 3\nvalue = [3, 0]", fillcolor="#e58139"] ;
108 -> 109 ;
110 [label="gini = 0.0\nsamples = 2\nvalue = [0, 2]", fillcolor="#399de5"] ;
108 -> 110 ;
111 [label="Parch <= 4.5\ngini = 0.105\nsamples = 18\nvalue = [17, 1]", fillcolor="#e78845"] ;
107 -> 111 ;
112 [label="gini = 0.0\nsamples = 13\nvalue = [13, 0]", fillcolor="#e58139"] ;
111 -> 112 ;
113 [label="Age <= 38.5\ngini = 0.32\nsamples = 5\nvalue = [4, 1]", fillcolor="#eca06a"] ;
111 -> 113 ;
114 [label="gini = 0.0\nsamples = 1\nvalue = [0, 1]", fillcolor="#399de5"] ;
113 -> 114 ;
115 [label="gini = 0.0\nsamples = 4\nvalue = [4, 0]", fillcolor="#e58139"] ;
113 -> 115 ;
116 [label="Age <= 6.5\ngini = 0.326\nsamples = 453\nvalue = [360, 93]", fillcolor="#eca26c"] ;
0 -> 116 [labeldistance=2.5, labelangle=-45, headlabel="False"] ;
117 [label="SibSp <= 2.5\ngini = 0.444\nsamples = 24\nvalue = [8, 16]", fillcolor="#9ccef2"] ;
116 -> 117 ;
118 [label="gini = 0.0\nsamples = 15\nvalue = [0, 15]", fillcolor="#399de5"] ;
117 -> 118 ;
119 [label="Parch <= 1.5\ngini = 0.198\nsamples = 9\nvalue = [8, 1]", fillcolor="#e89152"] ;
117 -> 119 ;
120 [label="gini = 0.0\nsamples = 5\nvalue = [5, 0]", fillcolor="#e58139"] ;
119 -> 120 ;
121 [label="Fare <= 31.331\ngini = 0.375\nsamples = 4\nvalue = [3, 1]", fillcolor="#eeab7b"] ;
119 -> 121 ;
122 [label="gini = 0.0\nsamples = 2\nvalue = [2, 0]", fillcolor="#e58139"] ;
121 -> 122 ;
123 [label="Age <= 2.0\ngini = 0.5\nsamples = 2\nvalue = [1, 1]", fillcolor="#ffffff"] ;
121 -> 123 ;
124 [label="gini = 0.0\nsamples = 1\nvalue = [1, 0]", fillcolor="#e58139"] ;
123 -> 124 ;
125 [label="gini = 0.0\nsamples = 1\nvalue = [0, 1]", fillcolor="#399de5"] ;
123 -> 125 ;
126 [label="Pclass <= 1.5\ngini = 0.295\nsamples = 429\nvalue = [352, 77]", fillcolor="#eb9d64"] ;
116 -> 126 ;
127 [label="Age <= 53.0\ngini = 0.473\nsamples = 99\nvalue = [61, 38]", fillcolor="#f5cfb4"] ;
126 -> 127 ;
128 [label="Fare <= 25.938\ngini = 0.496\nsamples = 77\nvalue = [42, 35]", fillcolor="#fbeade"] ;
127 -> 128 ;
129 [label="gini = 0.0\nsamples = 5\nvalue = [5, 0]", fillcolor="#e58139"] ;
128 -> 129 ;
130 [label="Fare <= 27.135\ngini = 0.5\nsamples = 72\nvalue = [37, 35]", fillcolor="#fef8f4"] ;
128 -> 130 ;
131 [label="Age <= 43.5\ngini = 0.165\nsamples = 11\nvalue = [1, 10]", fillcolor="#4da7e8"] ;
130 -> 131 ;
132 [label="gini = 0.0\nsamples = 7\nvalue = [0, 7]", fillcolor="#399de5"] ;
131 -> 132 ;
133 [label="Age <= 46.5\ngini = 0.375\nsamples = 4\nvalue = [1, 3]", fillcolor="#7bbeee"] ;
131 -> 133 ;
134 [label="gini = 0.5\nsamples = 2\nvalue = [1, 1]", fillcolor="#ffffff"] ;
133 -> 134 ;
135 [label="gini = 0.0\nsamples = 2\nvalue = [0, 2]", fillcolor="#399de5"] ;
133 -> 135 ;
136 [label="Fare <= 387.665\ngini = 0.484\nsamples = 61\nvalue = [36, 25]", fillcolor="#f7d8c2"] ;
130 -> 136 ;
137 [label="Fare <= 134.642\ngini = 0.476\nsamples = 59\nvalue = [36, 23]", fillcolor="#f6d2b8"] ;
136 -> 137 ;
138 [label="Age <= 27.5\ngini = 0.489\nsamples = 54\nvalue = [31, 23]", fillcolor="#f8decc"] ;
137 -> 138 ;
139 [label="Age <= 24.5\ngini = 0.426\nsamples = 13\nvalue = [4, 9]", fillcolor="#91c9f1"] ;
138 -> 139 ;
140 [label="Parch <= 0.5\ngini = 0.49\nsamples = 7\nvalue = [4, 3]", fillcolor="#f8e0ce"] ;
139 -> 140 ;
141 [label="gini = 0.0\nsamples = 3\nvalue = [3, 0]", fillcolor="#e58139"] ;
140 -> 141 ;
142 [label="Age <= 19.0\ngini = 0.375\nsamples = 4\nvalue = [1, 3]", fillcolor="#7bbeee"] ;
140 -> 142 ;
143 [label="gini = 0.0\nsamples = 2\nvalue = [0, 2]", fillcolor="#399de5"] ;
142 -> 143 ;
144 [label="Age <= 22.0\ngini = 0.5\nsamples = 2\nvalue = [1, 1]", fillcolor="#ffffff"] ;
142 -> 144 ;
145 [label="gini = 0.0\nsamples = 1\nvalue = [1, 0]", fillcolor="#e58139"] ;
144 -> 145 ;
146 [label="gini = 0.0\nsamples = 1\nvalue = [0, 1]", fillcolor="#399de5"] ;
144 -> 146 ;
147 [label="gini = 0.0\nsamples = 6\nvalue = [0, 6]", fillcolor="#399de5"] ;
139 -> 147 ;
148 [label="Fare <= 115.442\ngini = 0.45\nsamples = 41\nvalue = [27, 14]", fillcolor="#f2c2a0"] ;
138 -> 148 ;
149 [label="Fare <= 30.25\ngini = 0.426\nsamples = 39\nvalue = [27, 12]", fillcolor="#f1b991"] ;
148 -> 149 ;
150 [label="gini = 0.0\nsamples = 5\nvalue = [5, 0]", fillcolor="#e58139"] ;
149 -> 150 ;
151 [label="Fare <= 32.51\ngini = 0.457\nsamples = 34\nvalue = [22, 12]", fillcolor="#f3c6a5"] ;
149 -> 151 ;
152 [label="gini = 0.0\nsamples = 3\nvalue = [0, 3]", fillcolor="#399de5"] ;
151 -> 152 ;
153 [label="SibSp <= 0.5\ngini = 0.412\nsamples = 31\nvalue = [22, 9]", fillcolor="#f0b58a"] ;
151 -> 153 ;
154 [label="Age <= 29.5\ngini = 0.18\nsamples = 10\nvalue = [9, 1]", fillcolor="#e88f4f"] ;
153 -> 154 ;
155 [label="Fare <= 41.3\ngini = 0.5\nsamples = 2\nvalue = [1, 1]", fillcolor="#ffffff"] ;
154 -> 155 ;
156 [label="gini = 0.0\nsamples = 1\nvalue = [0, 1]", fillcolor="#399de5"] ;
155 -> 156 ;
157 [label="gini = 0.0\nsamples = 1\nvalue = [1, 0]", fillcolor="#e58139"] ;
155 -> 157 ;
158 [label="gini = 0.0\nsamples = 8\nvalue = [8, 0]", fillcolor="#e58139"] ;
154 -> 158 ;
159 [label="Age <= 49.5\ngini = 0.472\nsamples = 21\nvalue = [13, 8]", fillcolor="#f5cfb3"] ;
153 -> 159 ;
160 [label="Age <= 47.0\ngini = 0.494\nsamples = 18\nvalue = [10, 8]", fillcolor="#fae6d7"] ;
159 -> 160 ;
161 [label="Parch <= 0.5\ngini = 0.426\nsamples = 13\nvalue = [9, 4]", fillcolor="#f1b991"] ;
160 -> 161 ;
162 [label="Age <= 43.0\ngini = 0.375\nsamples = 12\nvalue = [9, 3]", fillcolor="#eeab7b"] ;
161 -> 162 ;
163 [label="Age <= 37.5\ngini = 0.444\nsamples = 9\nvalue = [6, 3]", fillcolor="#f2c09c"] ;
162 -> 163 ;
164 [label="Fare <= 61.8\ngini = 0.278\nsamples = 6\nvalue = [5, 1]", fillcolor="#ea9a61"] ;
163 -> 164 ;
165 [label="Fare <= 55.05\ngini = 0.444\nsamples = 3\nvalue = [2, 1]", fillcolor="#f2c09c"] ;
164 -> 165 ;
166 [label="gini = 0.0\nsamples = 2\nvalue = [2, 0]", fillcolor="#e58139"] ;
165 -> 166 ;
167 [label="gini = 0.0\nsamples = 1\nvalue = [0, 1]", fillcolor="#399de5"] ;
165 -> 167 ;
168 [label="gini = 0.0\nsamples = 3\nvalue = [3, 0]", fillcolor="#e58139"] ;
164 -> 168 ;
169 [label="Fare <= 52.277\ngini = 0.444\nsamples = 3\nvalue = [1, 2]", fillcolor="#9ccef2"] ;
163 -> 169 ;
170 [label="gini = 0.0\nsamples = 1\nvalue = [1, 0]", fillcolor="#e58139"] ;
169 -> 170 ;
171 [label="gini = 0.0\nsamples = 2\nvalue = [0, 2]", fillcolor="#399de5"] ;
169 -> 171 ;
172 [label="gini = 0.0\nsamples = 3\nvalue = [3, 0]", fillcolor="#e58139"] ;
162 -> 172 ;
173 [label="gini = 0.0\nsamples = 1\nvalue = [0, 1]", fillcolor="#399de5"] ;
161 -> 173 ;
174 [label="Parch <= 0.5\ngini = 0.32\nsamples = 5\nvalue = [1, 4]", fillcolor="#6ab6ec"] ;
160 -> 174 ;
175 [label="gini = 0.0\nsamples = 4\nvalue = [0, 4]", fillcolor="#399de5"] ;
174 -> 175 ;
176 [label="gini = 0.0\nsamples = 1\nvalue = [1, 0]", fillcolor="#e58139"] ;
174 -> 176 ;
177 [label="gini = 0.0\nsamples = 3\nvalue = [3, 0]", fillcolor="#e58139"] ;
159 -> 177 ;
178 [label="gini = 0.0\nsamples = 2\nvalue = [0, 2]", fillcolor="#399de5"] ;
148 -> 178 ;
179 [label="gini = 0.0\nsamples = 5\nvalue = [5, 0]", fillcolor="#e58139"] ;
137 -> 179 ;
180 [label="gini = 0.0\nsamples = 2\nvalue = [0, 2]", fillcolor="#399de5"] ;
136 -> 180 ;
181 [label="Age <= 75.5\ngini = 0.236\nsamples = 22\nvalue = [19, 3]", fillcolor="#e99558"] ;
127 -> 181 ;
182 [label="Embarked <= 1.0\ngini = 0.172\nsamples = 21\nvalue = [19, 2]", fillcolor="#e88e4e"] ;
181 -> 182 ;
183 [label="SibSp <= 0.5\ngini = 0.375\nsamples = 8\nvalue = [6, 2]", fillcolor="#eeab7b"] ;
182 -> 183 ;
184 [label="Age <= 57.0\ngini = 0.245\nsamples = 7\nvalue = [6, 1]", fillcolor="#e9965a"] ;
183 -> 184 ;
185 [label="Fare <= 33.098\ngini = 0.5\nsamples = 2\nvalue = [1, 1]", fillcolor="#ffffff"] ;
184 -> 185 ;
186 [label="gini = 0.0\nsamples = 1\nvalue = [1, 0]", fillcolor="#e58139"] ;
185 -> 186 ;
187 [label="gini = 0.0\nsamples = 1\nvalue = [0, 1]", fillcolor="#399de5"] ;
185 -> 187 ;
188 [label="gini = 0.0\nsamples = 5\nvalue = [5, 0]", fillcolor="#e58139"] ;
184 -> 188 ;
189 [label="gini = 0.0\nsamples = 1\nvalue = [0, 1]", fillcolor="#399de5"] ;
183 -> 189 ;
190 [label="gini = 0.0\nsamples = 13\nvalue = [13, 0]", fillcolor="#e58139"] ;
182 -> 190 ;
191 [label="gini = 0.0\nsamples = 1\nvalue = [0, 1]", fillcolor="#399de5"] ;
181 -> 191 ;
192 [label="Age <= 13.0\ngini = 0.208\nsamples = 330\nvalue = [291, 39]", fillcolor="#e89254"] ;
126 -> 192 ;
193 [label="SibSp <= 2.0\ngini = 0.444\nsamples = 12\nvalue = [8, 4]", fillcolor="#f2c09c"] ;
192 -> 193 ;
194 [label="Parch <= 0.5\ngini = 0.32\nsamples = 5\nvalue = [1, 4]", fillcolor="#6ab6ec"] ;
193 -> 194 ;
195 [label="Fare <= 15.015\ngini = 0.5\nsamples = 2\nvalue = [1, 1]", fillcolor="#ffffff"] ;
194 -> 195 ;
196 [label="gini = 0.0\nsamples = 1\nvalue = [0, 1]", fillcolor="#399de5"] ;
195 -> 196 ;
197 [label="gini = 0.0\nsamples = 1\nvalue = [1, 0]", fillcolor="#e58139"] ;
195 -> 197 ;
198 [label="gini = 0.0\nsamples = 3\nvalue = [0, 3]", fillcolor="#399de5"] ;
194 -> 198 ;
199 [label="gini = 0.0\nsamples = 7\nvalue = [7, 0]", fillcolor="#e58139"] ;
193 -> 199 ;
200 [label="Fare <= 51.698\ngini = 0.196\nsamples = 318\nvalue = [283, 35]", fillcolor="#e89151"] ;
192 -> 200 ;
201 [label="Age <= 32.25\ngini = 0.186\nsamples = 309\nvalue = [277, 32]", fillcolor="#e89050"] ;
200 -> 201 ;
202 [label="Age <= 30.75\ngini = 0.222\nsamples = 204\nvalue = [178, 26]", fillcolor="#e99356"] ;
201 -> 202 ;
203 [label="Embarked <= 1.5\ngini = 0.192\nsamples = 186\nvalue = [166, 20]", fillcolor="#e89051"] ;
202 -> 203 ;
204 [label="Fare <= 7.746\ngini = 0.375\nsamples = 24\nvalue = [18, 6]", fillcolor="#eeab7b"] ;
203 -> 204 ;
205 [label="Age <= 22.75\ngini = 0.245\nsamples = 14\nvalue = [12, 2]", fillcolor="#e9965a"] ;
204 -> 205 ;
206 [label="Age <= 19.5\ngini = 0.375\nsamples = 8\nvalue = [6, 2]", fillcolor="#eeab7b"] ;
205 -> 206 ;
207 [label="gini = 0.0\nsamples = 3\nvalue = [3, 0]", fillcolor="#e58139"] ;
206 -> 207 ;
208 [label="Fare <= 5.619\ngini = 0.48\nsamples = 5\nvalue = [3, 2]", fillcolor="#f6d5bd"] ;
206 -> 208 ;
209 [label="gini = 0.0\nsamples = 1\nvalue = [1, 0]", fillcolor="#e58139"] ;
208 -> 209 ;
210 [label="Age <= 20.5\ngini = 0.5\nsamples = 4\nvalue = [2, 2]", fillcolor="#ffffff"] ;
208 -> 210 ;
211 [label="gini = 0.0\nsamples = 1\nvalue = [0, 1]", fillcolor="#399de5"] ;
210 -> 211 ;
212 [label="Fare <= 7.227\ngini = 0.444\nsamples = 3\nvalue = [2, 1]", fillcolor="#f2c09c"] ;
210 -> 212 ;
213 [label="gini = 0.0\nsamples = 1\nvalue = [0, 1]", fillcolor="#399de5"] ;
212 -> 213 ;
214 [label="gini = 0.0\nsamples = 2\nvalue = [2, 0]", fillcolor="#e58139"] ;
212 -> 214 ;
215 [label="gini = 0.0\nsamples = 6\nvalue = [6, 0]", fillcolor="#e58139"] ;
205 -> 215 ;
216 [label="Pclass <= 2.5\ngini = 0.48\nsamples = 10\nvalue = [6, 4]", fillcolor="#f6d5bd"] ;
204 -> 216 ;
217 [label="gini = 0.0\nsamples = 4\nvalue = [4, 0]", fillcolor="#e58139"] ;
216 -> 217 ;
218 [label="SibSp <= 0.5\ngini = 0.444\nsamples = 6\nvalue = [2, 4]", fillcolor="#9ccef2"] ;
216 -> 218 ;
219 [label="gini = 0.0\nsamples = 3\nvalue = [0, 3]", fillcolor="#399de5"] ;
218 -> 219 ;
220 [label="Parch <= 0.5\ngini = 0.444\nsamples = 3\nvalue = [2, 1]", fillcolor="#f2c09c"] ;
218 -> 220 ;
221 [label="gini = 0.0\nsamples = 2\nvalue = [2, 0]", fillcolor="#e58139"] ;
220 -> 221 ;
222 [label="gini = 0.0\nsamples = 1\nvalue = [0, 1]", fillcolor="#399de5"] ;
220 -> 222 ;
223 [label="Fare <= 7.01\ngini = 0.158\nsamples = 162\nvalue = [148, 14]", fillcolor="#e78d4c"] ;
203 -> 223 ;
224 [label="Age <= 22.0\ngini = 0.5\nsamples = 4\nvalue = [2, 2]", fillcolor="#ffffff"] ;
223 -> 224 ;
225 [label="gini = 0.0\nsamples = 2\nvalue = [2, 0]", fillcolor="#e58139"] ;
224 -> 225 ;
226 [label="gini = 0.0\nsamples = 2\nvalue = [0, 2]", fillcolor="#399de5"] ;
224 -> 226 ;
227 [label="Fare <= 11.0\ngini = 0.14\nsamples = 158\nvalue = [146, 12]", fillcolor="#e78b49"] ;
223 -> 227 ;
228 [label="Fare <= 7.91\ngini = 0.187\nsamples = 115\nvalue = [103, 12]", fillcolor="#e89050"] ;
227 -> 228 ;
229 [label="Fare <= 7.798\ngini = 0.126\nsamples = 59\nvalue = [55, 4]", fillcolor="#e78a47"] ;
228 -> 229 ;
230 [label="Fare <= 7.785\ngini = 0.202\nsamples = 35\nvalue = [31, 4]", fillcolor="#e89153"] ;
229 -> 230 ;
231 [label="Age <= 23.0\ngini = 0.128\nsamples = 29\nvalue = [27, 2]", fillcolor="#e78a48"] ;
230 -> 231 ;
232 [label="gini = 0.0\nsamples = 16\nvalue = [16, 0]", fillcolor="#e58139"] ;
231 -> 232 ;
233 [label="Fare <= 7.096\ngini = 0.26\nsamples = 13\nvalue = [11, 2]", fillcolor="#ea985d"] ;
231 -> 233 ;
234 [label="gini = 0.0\nsamples = 4\nvalue = [4, 0]", fillcolor="#e58139"] ;
233 -> 234 ;
235 [label="Fare <= 7.196\ngini = 0.346\nsamples = 9\nvalue = [7, 2]", fillcolor="#eca572"] ;
233 -> 235 ;
236 [label="gini = 0.0\nsamples = 1\nvalue = [0, 1]", fillcolor="#399de5"] ;
235 -> 236 ;
237 [label="SibSp <= 0.5\ngini = 0.219\nsamples = 8\nvalue = [7, 1]", fillcolor="#e99355"] ;
235 -> 237 ;
238 [label="gini = 0.0\nsamples = 6\nvalue = [6, 0]", fillcolor="#e58139"] ;
237 -> 238 ;
239 [label="gini = 0.5\nsamples = 2\nvalue = [1, 1]", fillcolor="#ffffff"] ;
237 -> 239 ;
240 [label="Age <= 19.5\ngini = 0.444\nsamples = 6\nvalue = [4, 2]", fillcolor="#f2c09c"] ;
230 -> 240 ;
241 [label="gini = 0.0\nsamples = 1\nvalue = [1, 0]", fillcolor="#e58139"] ;
240 -> 241 ;
242 [label="Age <= 21.5\ngini = 0.48\nsamples = 5\nvalue = [3, 2]", fillcolor="#f6d5bd"] ;
240 -> 242 ;
243 [label="gini = 0.0\nsamples = 1\nvalue = [0, 1]", fillcolor="#399de5"] ;
242 -> 243 ;
244 [label="Age <= 25.5\ngini = 0.375\nsamples = 4\nvalue = [3, 1]", fillcolor="#eeab7b"] ;
242 -> 244 ;
245 [label="gini = 0.0\nsamples = 2\nvalue = [2, 0]", fillcolor="#e58139"] ;
244 -> 245 ;
246 [label="Age <= 27.5\ngini = 0.5\nsamples = 2\nvalue = [1, 1]", fillcolor="#ffffff"] ;
244 -> 246 ;
247 [label="gini = 0.0\nsamples = 1\nvalue = [0, 1]", fillcolor="#399de5"] ;
246 -> 247 ;
248 [label="gini = 0.0\nsamples = 1\nvalue = [1, 0]", fillcolor="#e58139"] ;
246 -> 248 ;
249 [label="gini = 0.0\nsamples = 24\nvalue = [24, 0]", fillcolor="#e58139"] ;
229 -> 249 ;
250 [label="Age <= 19.5\ngini = 0.245\nsamples = 56\nvalue = [48, 8]", fillcolor="#e9965a"] ;
228 -> 250 ;
251 [label="Fare <= 8.104\ngini = 0.375\nsamples = 16\nvalue = [12, 4]", fillcolor="#eeab7b"] ;
250 -> 251 ;
252 [label="Age <= 17.0\ngini = 0.48\nsamples = 5\nvalue = [2, 3]", fillcolor="#bddef6"] ;
251 -> 252 ;
253 [label="gini = 0.5\nsamples = 2\nvalue = [1, 1]", fillcolor="#ffffff"] ;
252 -> 253 ;
254 [label="Age <= 18.5\ngini = 0.444\nsamples = 3\nvalue = [1, 2]", fillcolor="#9ccef2"] ;
252 -> 254 ;
255 [label="gini = 0.0\nsamples = 1\nvalue = [0, 1]", fillcolor="#399de5"] ;
254 -> 255 ;
256 [label="gini = 0.5\nsamples = 2\nvalue = [1, 1]", fillcolor="#ffffff"] ;
254 -> 256 ;
257 [label="Pclass <= 2.5\ngini = 0.165\nsamples = 11\nvalue = [10, 1]", fillcolor="#e88e4d"] ;
251 -> 257 ;
258 [label="Age <= 17.5\ngini = 0.444\nsamples = 3\nvalue = [2, 1]", fillcolor="#f2c09c"] ;
257 -> 258 ;
259 [label="gini = 0.0\nsamples = 1\nvalue = [1, 0]", fillcolor="#e58139"] ;
258 -> 259 ;
260 [label="gini = 0.5\nsamples = 2\nvalue = [1, 1]", fillcolor="#ffffff"] ;
258 -> 260 ;
261 [label="gini = 0.0\nsamples = 8\nvalue = [8, 0]", fillcolor="#e58139"] ;
257 -> 261 ;
262 [label="Age <= 26.5\ngini = 0.18\nsamples = 40\nvalue = [36, 4]", fillcolor="#e88f4f"] ;
250 -> 262 ;
263 [label="SibSp <= 0.5\ngini = 0.074\nsamples = 26\nvalue = [25, 1]", fillcolor="#e68641"] ;
262 -> 263 ;
264 [label="gini = 0.0\nsamples = 24\nvalue = [24, 0]", fillcolor="#e58139"] ;
263 -> 264 ;
265 [label="SibSp <= 1.5\ngini = 0.5\nsamples = 2\nvalue = [1, 1]", fillcolor="#ffffff"] ;
263 -> 265 ;
266 [label="gini = 0.0\nsamples = 1\nvalue = [0, 1]", fillcolor="#399de5"] ;
265 -> 266 ;
267 [label="gini = 0.0\nsamples = 1\nvalue = [1, 0]", fillcolor="#e58139"] ;
265 -> 267 ;
268 [label="Age <= 27.5\ngini = 0.337\nsamples = 14\nvalue = [11, 3]", fillcolor="#eca36f"] ;
262 -> 268 ;
269 [label="gini = 0.0\nsamples = 1\nvalue = [0, 1]", fillcolor="#399de5"] ;
268 -> 269 ;
270 [label="Fare <= 9.492\ngini = 0.26\nsamples = 13\nvalue = [11, 2]", fillcolor="#ea985d"] ;
268 -> 270 ;
271 [label="gini = 0.0\nsamples = 6\nvalue = [6, 0]", fillcolor="#e58139"] ;
270 -> 271 ;
272 [label="Fare <= 10.0\ngini = 0.408\nsamples = 7\nvalue = [5, 2]", fillcolor="#efb388"] ;
270 -> 272 ;
273 [label="Age <= 28.5\ngini = 0.5\nsamples = 4\nvalue = [2, 2]", fillcolor="#ffffff"] ;
272 -> 273 ;
274 [label="gini = 0.0\nsamples = 2\nvalue = [2, 0]", fillcolor="#e58139"] ;
273 -> 274 ;
275 [label="gini = 0.0\nsamples = 2\nvalue = [0, 2]", fillcolor="#399de5"] ;
273 -> 275 ;
276 [label="gini = 0.0\nsamples = 3\nvalue = [3, 0]", fillcolor="#e58139"] ;
272 -> 276 ;
277 [label="gini = 0.0\nsamples = 43\nvalue = [43, 0]", fillcolor="#e58139"] ;
227 -> 277 ;
278 [label="Embarked <= 1.5\ngini = 0.444\nsamples = 18\nvalue = [12, 6]", fillcolor="#f2c09c"] ;
202 -> 278 ;
279 [label="gini = 0.0\nsamples = 3\nvalue = [3, 0]", fillcolor="#e58139"] ;
278 -> 279 ;
280 [label="Fare <= 7.815\ngini = 0.48\nsamples = 15\nvalue = [9, 6]", fillcolor="#f6d5bd"] ;
278 -> 280 ;
281 [label="gini = 0.0\nsamples = 1\nvalue = [1, 0]", fillcolor="#e58139"] ;
280 -> 281 ;
282 [label="Fare <= 7.875\ngini = 0.49\nsamples = 14\nvalue = [8, 6]", fillcolor="#f8e0ce"] ;
280 -> 282 ;
283 [label="gini = 0.0\nsamples = 1\nvalue = [0, 1]", fillcolor="#399de5"] ;
282 -> 283 ;
284 [label="Parch <= 0.5\ngini = 0.473\nsamples = 13\nvalue = [8, 5]", fillcolor="#f5d0b5"] ;
282 -> 284 ;
285 [label="Fare <= 20.925\ngini = 0.486\nsamples = 12\nvalue = [7, 5]", fillcolor="#f8dbc6"] ;
284 -> 285 ;
286 [label="Age <= 31.5\ngini = 0.463\nsamples = 11\nvalue = [7, 4]", fillcolor="#f4c9aa"] ;
285 -> 286 ;
287 [label="Pclass <= 2.5\ngini = 0.444\nsamples = 3\nvalue = [1, 2]", fillcolor="#9ccef2"] ;
286 -> 287 ;
288 [label="Fare <= 11.75\ngini = 0.5\nsamples = 2\nvalue = [1, 1]", fillcolor="#ffffff"] ;
287 -> 288 ;
289 [label="gini = 0.0\nsamples = 1\nvalue = [1, 0]", fillcolor="#e58139"] ;
288 -> 289 ;
290 [label="gini = 0.0\nsamples = 1\nvalue = [0, 1]", fillcolor="#399de5"] ;
288 -> 290 ;
291 [label="gini = 0.0\nsamples = 1\nvalue = [0, 1]", fillcolor="#399de5"] ;
287 -> 291 ;
292 [label="Fare <= 8.206\ngini = 0.375\nsamples = 8\nvalue = [6, 2]", fillcolor="#eeab7b"] ;
286 -> 292 ;
293 [label="Fare <= 7.988\ngini = 0.48\nsamples = 5\nvalue = [3, 2]", fillcolor="#f6d5bd"] ;
292 -> 293 ;
294 [label="Fare <= 7.91\ngini = 0.375\nsamples = 4\nvalue = [3, 1]", fillcolor="#eeab7b"] ;
293 -> 294 ;
295 [label="gini = 0.0\nsamples = 1\nvalue = [1, 0]", fillcolor="#e58139"] ;
294 -> 295 ;
296 [label="gini = 0.444\nsamples = 3\nvalue = [2, 1]", fillcolor="#f2c09c"] ;
294 -> 296 ;
297 [label="gini = 0.0\nsamples = 1\nvalue = [0, 1]", fillcolor="#399de5"] ;
293 -> 297 ;
298 [label="gini = 0.0\nsamples = 3\nvalue = [3, 0]", fillcolor="#e58139"] ;
292 -> 298 ;
299 [label="gini = 0.0\nsamples = 1\nvalue = [0, 1]", fillcolor="#399de5"] ;
285 -> 299 ;
300 [label="gini = 0.0\nsamples = 1\nvalue = [1, 0]", fillcolor="#e58139"] ;
284 -> 300 ;
301 [label="Fare <= 7.91\ngini = 0.108\nsamples = 105\nvalue = [99, 6]", fillcolor="#e78945"] ;
201 -> 301 ;
302 [label="gini = 0.0\nsamples = 32\nvalue = [32, 0]", fillcolor="#e58139"] ;
301 -> 302 ;
303 [label="Fare <= 7.988\ngini = 0.151\nsamples = 73\nvalue = [67, 6]", fillcolor="#e78c4b"] ;
301 -> 303 ;
304 [label="SibSp <= 1.0\ngini = 0.5\nsamples = 4\nvalue = [2, 2]", fillcolor="#ffffff"] ;
303 -> 304 ;
305 [label="Age <= 41.5\ngini = 0.444\nsamples = 3\nvalue = [1, 2]", fillcolor="#9ccef2"] ;
304 -> 305 ;
306 [label="gini = 0.5\nsamples = 2\nvalue = [1, 1]", fillcolor="#ffffff"] ;
305 -> 306 ;
307 [label="gini = 0.0\nsamples = 1\nvalue = [0, 1]", fillcolor="#399de5"] ;
305 -> 307 ;
308 [label="gini = 0.0\nsamples = 1\nvalue = [1, 0]", fillcolor="#e58139"] ;
304 -> 308 ;
309 [label="Age <= 61.0\ngini = 0.109\nsamples = 69\nvalue = [65, 4]", fillcolor="#e78945"] ;
303 -> 309 ;
310 [label="Fare <= 13.25\ngini = 0.087\nsamples = 66\nvalue = [63, 3]", fillcolor="#e68742"] ;
309 -> 310 ;
311 [label="Fare <= 12.938\ngini = 0.157\nsamples = 35\nvalue = [32, 3]", fillcolor="#e78d4c"] ;
310 -> 311 ;
312 [label="Age <= 44.5\ngini = 0.08\nsamples = 24\nvalue = [23, 1]", fillcolor="#e68642"] ;
311 -> 312 ;
313 [label="gini = 0.0\nsamples = 17\nvalue = [17, 0]", fillcolor="#e58139"] ;
312 -> 313 ;
314 [label="Age <= 46.0\ngini = 0.245\nsamples = 7\nvalue = [6, 1]", fillcolor="#e9965a"] ;
312 -> 314 ;
315 [label="gini = 0.0\nsamples = 1\nvalue = [0, 1]", fillcolor="#399de5"] ;
314 -> 315 ;
316 [label="gini = 0.0\nsamples = 6\nvalue = [6, 0]", fillcolor="#e58139"] ;
314 -> 316 ;
317 [label="Age <= 45.0\ngini = 0.298\nsamples = 11\nvalue = [9, 2]", fillcolor="#eb9d65"] ;
311 -> 317 ;
318 [label="Age <= 40.5\ngini = 0.375\nsamples = 8\nvalue = [6, 2]", fillcolor="#eeab7b"] ;
317 -> 318 ;
319 [label="Age <= 35.0\ngini = 0.278\nsamples = 6\nvalue = [5, 1]", fillcolor="#ea9a61"] ;
318 -> 319 ;
320 [label="gini = 0.444\nsamples = 3\nvalue = [2, 1]", fillcolor="#f2c09c"] ;
319 -> 320 ;
321 [label="gini = 0.0\nsamples = 3\nvalue = [3, 0]", fillcolor="#e58139"] ;
319 -> 321 ;
322 [label="gini = 0.5\nsamples = 2\nvalue = [1, 1]", fillcolor="#ffffff"] ;
318 -> 322 ;
323 [label="gini = 0.0\nsamples = 3\nvalue = [3, 0]", fillcolor="#e58139"] ;
317 -> 323 ;
324 [label="gini = 0.0\nsamples = 31\nvalue = [31, 0]", fillcolor="#e58139"] ;
310 -> 324 ;
325 [label="Age <= 64.0\ngini = 0.444\nsamples = 3\nvalue = [2, 1]", fillcolor="#f2c09c"] ;
309 -> 325 ;
326 [label="gini = 0.0\nsamples = 1\nvalue = [0, 1]", fillcolor="#399de5"] ;
325 -> 326 ;
327 [label="gini = 0.0\nsamples = 2\nvalue = [2, 0]", fillcolor="#e58139"] ;
325 -> 327 ;
328 [label="Pclass <= 2.5\ngini = 0.444\nsamples = 9\nvalue = [6, 3]", fillcolor="#f2c09c"] ;
200 -> 328 ;
329 [label="gini = 0.0\nsamples = 5\nvalue = [5, 0]", fillcolor="#e58139"] ;
328 -> 329 ;
330 [label="Age <= 30.0\ngini = 0.375\nsamples = 4\nvalue = [1, 3]", fillcolor="#7bbeee"] ;
328 -> 330 ;
331 [label="Age <= 27.0\ngini = 0.5\nsamples = 2\nvalue = [1, 1]", fillcolor="#ffffff"] ;
330 -> 331 ;
332 [label="gini = 0.0\nsamples = 1\nvalue = [0, 1]", fillcolor="#399de5"] ;
331 -> 332 ;
333 [label="gini = 0.0\nsamples = 1\nvalue = [1, 0]", fillcolor="#e58139"] ;
331 -> 333 ;
334 [label="gini = 0.0\nsamples = 2\nvalue = [0, 2]", fillcolor="#399de5"] ;
330 -> 334 ;
}